com\virtualpairprogrammers\web\servlet\MenuSearchServlet.class
com\virtualpairprogrammers\web\servlet\OrderServlet.class
com\virtualpairprogrammers\domain\Order.class
com\virtualpairprogrammers\domain\MenuCategory.class
com\virtualpairprogrammers\web\servlet\HomePageServlet.class
com\virtualpairprogrammers\domain\MenuItem.class
com\virtualpairprogrammers\data\MenuDataService.class
com\virtualpairprogrammers\main\Main.class
com\virtualpairprogrammers\web\servlet\HelloAgainWorldServlet.class
